<svg width="19" height="18" viewBox="0 0 19 18" fill="none" xmlns="http://www.w3.org/2000/svg">
<path d="M16.5 18H7.5C6.39543 18 5.5 17.1046 5.5 16V12H7.5V16H16.5V2H7.5V6H5.5V2C5.5 0.89543 6.39543 0 7.5 0H16.5C17.6046 0 18.5 0.89543 18.5 2V16C18.5 17.1046 17.6046 18 16.5 18ZM9.5 13V10H0.5V8H9.5V5L14.5 9L9.5 13Z" fill="#FCFCFC"/>
</svg>
