<svg width="19" height="16" viewBox="0 0 19 16" fill="none" xmlns="http://www.w3.org/2000/svg">
<path d="M18.5 16H15.5V6H18.5V16ZM13.5 16H10.5V3H13.5V16ZM8.5 16H5.5V0H8.5V16ZM3.5 16H0.5V8H3.5V16Z" fill="#FCFCFC"/>
</svg>
