<svg width="21" height="18" viewBox="0 0 21 18" fill="none" xmlns="http://www.w3.org/2000/svg">
<path d="M7.5 0C4.73858 0 2.5 2.23858 2.5 5C2.5 7.76142 4.73858 10 7.5 10C10.2614 10 12.5 7.76142 12.5 5C12.5 2.23858 10.2614 0 7.5 0ZM4.5 5C4.5 3.34315 5.84315 2 7.5 2C9.15685 2 10.5 3.34315 10.5 5C10.5 6.65685 9.15685 8 7.5 8C5.84315 8 4.5 6.65685 4.5 5Z" fill="#FCFCFC"/>
<path d="M15.4084 5.21828C15.1271 5.07484 14.8158 5.00006 14.5 5.00006V3.00006C15.1316 3.00006 15.7542 3.14956 16.3169 3.43645C16.3789 3.46805 16.4399 3.50121 16.5 3.5359C16.9854 3.81614 17.4072 4.19569 17.7373 4.65055C18.1083 5.16172 18.3529 5.75347 18.4512 6.37737C18.5496 7.00126 18.4987 7.63958 18.3029 8.24005C18.1071 8.84053 17.7719 9.38611 17.3247 9.83213C16.8775 10.2782 16.3311 10.6119 15.7301 10.8062C15.1953 10.979 14.6308 11.037 14.0735 10.9772C14.0046 10.9698 13.9357 10.9606 13.867 10.9496C13.2438 10.8497 12.6531 10.6038 12.1431 10.2319L12.1421 10.2311L13.321 8.61557C13.5761 8.80172 13.8717 8.92477 14.1835 8.97474C14.4953 9.02471 14.8145 9.00014 15.115 8.90302C15.4155 8.80591 15.6887 8.63903 15.9123 8.41602C16.1359 8.19302 16.3035 7.92024 16.4014 7.62001C16.4993 7.31978 16.5247 7.00063 16.4756 6.68869C16.4264 6.37675 16.3041 6.08089 16.1186 5.82531C15.9331 5.56974 15.6898 5.36172 15.4084 5.21828Z" fill="#FCFCFC"/>
<path d="M18.4981 18C18.4981 17.475 18.3947 16.9551 18.1938 16.47C17.9928 15.9849 17.6983 15.5442 17.3271 15.1729C16.9558 14.8017 16.5151 14.5072 16.03 14.3062C15.5449 14.1053 15.025 14.0019 14.5 14.0019V12C15.1821 12 15.8584 12.1163 16.5 12.3431C16.5996 12.3783 16.6983 12.4162 16.7961 12.4567C17.5241 12.7583 18.1855 13.2002 18.7426 13.7574C19.2998 14.3145 19.7417 14.9759 20.0433 15.7039C20.0838 15.8017 20.1217 15.9004 20.1569 16C20.3837 16.6416 20.5 17.3179 20.5 18H18.4981Z" fill="#FCFCFC"/>
<path d="M14.5 18H12.5C12.5 15.2386 10.2614 13 7.5 13C4.73858 13 2.5 15.2386 2.5 18H0.5C0.5 14.134 3.63401 11 7.5 11C11.366 11 14.5 14.134 14.5 18Z" fill="#FCFCFC"/>
</svg>
